<svg width="26" height="39" viewBox="0 0 26 39" fill="none" xmlns="http://www.w3.org/2000/svg">
<path d="M13.0318 0.156372C6.35736 0.156372 0.949219 5.54007 0.949219 12.2087C0.949219 23.7394 13.0318 38.777 13.0318 38.777C13.0318 38.777 25.1143 23.7369 25.1143 12.2087C25.1143 5.54249 19.7061 0.156372 13.0318 0.156372ZM13.0318 18.8774C11.3013 18.8774 9.64178 18.1903 8.41819 16.9673C7.19459 15.7443 6.50719 14.0856 6.50719 12.356C6.50719 10.6265 7.19459 8.96777 8.41819 7.74479C9.64178 6.5218 11.3013 5.83474 13.0318 5.83474C14.7622 5.83474 16.4217 6.5218 17.6453 7.74479C18.8689 8.96777 19.5563 10.6265 19.5563 12.356C19.5563 14.0856 18.8689 15.7443 17.6453 16.9673C16.4217 18.1903 14.7622 18.8774 13.0318 18.8774Z" fill="#DD2E44"/>
</svg>
